sw/examples/trace.vcd
$version Generated by VerilatedVcd $end
$date Fri Dec  9 17:21:48 2022
 $end
$timescale   1ps $end

 $scope module TOP $end
  $var wire  1 U clk_i $end
  $var wire  1 a dmem_ack_i $end
  $var wire 32 [ dmem_addr_o [31:0] $end
  $var wire 32 \ dmem_data_i [31:0] $end
  $var wire 32 ] dmem_data_o [31:0] $end
  $var wire  4 ^ dmem_sel_o [3:0] $end
  $var wire  1 ` dmem_valid_o $end
  $var wire  1 _ dmem_we_o $end
  $var wire  1 Z imem_ack_i $end
  $var wire 32 W imem_addr_o [31:0] $end
  $var wire 32 X imem_data_i [31:0] $end
  $var wire  1 Y imem_valid_o $end
  $var wire  1 V rst_i $end
  $scope module AtomBones $end
   $var wire  1 U clk_i $end
   $var wire  1 a dmem_ack_i $end
   $var wire 32 ' dmem_addr_o [31:0] $end
   $var wire 32 \ dmem_data_i [31:0] $end
   $var wire 32 ( dmem_data_o [31:0] $end
   $var wire  4 ) dmem_sel_o [3:0] $end
   $var wire  1 + dmem_valid_o $end
   $var wire  1 * dmem_we_o $end
   $var wire  1 Z imem_ack_i $end
   $var wire 32 b imem_addr_o [31:0] $end
   $var wire 32 X imem_data_i [31:0] $end
   $var wire  1 c imem_valid_o $end
   $var wire  1 V rst_i $end
   $scope module atom_core $end
    $var wire 32 j InstructionRegister [31:0] $end
    $var wire 32 b ProgramCounter [31:0] $end
    $var wire 32 i ProgramCounter_Old [31:0] $end
    $var wire 32 ; alu_a_in [31:0] $end
    $var wire 32 < alu_b_in [31:0] $end
    $var wire 32 = alu_out [31:0] $end
    $var wire  1 U clk_i $end
    $var wire 32 9 cmp_A [31:0] $end
    $var wire 32 9 cmp_A_signed [31:0] $end
    $var wire 32 ? cmp_B [31:0] $end
    $var wire 32 ? cmp_B_signed [31:0] $end
    $var wire  1 > comparison_result $end
    $var wire 12 @ csru_addr_i [11:0] $end
    $var wire 32 B csru_data_i [31:0] $end
    $var wire 32 A csru_data_o [31:0] $end
    $var wire  1 4 d_a_op_sel $end
    $var wire  3 7 d_alu_op_sel [2:0] $end
    $var wire  1 5 d_b_op_sel $end
    $var wire  1 6 d_cmp_b_op_sel $end
    $var wire  3 1 d_comparison_type [2:0] $end
    $var wire  3 n d_csru_op_sel [2:0] $end
    $var wire  1 8 d_csru_we $end
    $var wire 32 / d_imm [31:0] $end
    $var wire  1 0 d_jump_en $end
    $var wire  3 n d_mem_access_width [2:0] $end
    $var wire  1 + d_mem_load_store $end
    $var wire  1 * d_mem_we $end
    $var wire  5 k d_rd_sel [4:0] $end
    $var wire  3 3 d_rf_din_sel [2:0] $end
    $var wire  1 2 d_rf_we $end
    $var wire  5 l d_rs1_sel [4:0] $end
    $var wire  5 m d_rs2_sel [4:0] $end
    $var wire  1 a dmem_ack_i $end
    $var wire 32 ' dmem_addr_o [31:0] $end
    $var wire 32 = dmem_address [31:0] $end
    $var wire 32 \ dmem_data_i [31:0] $end
    $var wire 32 ( dmem_data_o [31:0] $end
    $var wire 32 : dmem_data_out [31:0] $end
    $var wire  1 e dmem_handshake $end
    $var wire  4 ) dmem_sel_o [3:0] $end
    $var wire  1 + dmem_valid_o $end
    $var wire  1 * dmem_we_o $end
    $var wire  1 g flush_pipeline $end
    $var wire  1 - ignore_imem_handshake $end
    $var wire  1 Z imem_ack_i $end
    $var wire 32 b imem_addr_o [31:0] $end
    $var wire 32 X imem_data_i [31:0] $end
    $var wire  1 d imem_handshake $end
    $var wire  1 c imem_valid_o $end
    $var wire  1 , jump_decision $end
    $var wire 32 . link_address [31:0] $end
    $var wire 32 & memload [31:0] $end
    $var wire 32 h pc_plus_four [31:0] $end
    $var wire  1 # raw_imem_handshake $end
    $var wire 32 o rf_rd_data [31:0] $end
    $var wire 32 9 rf_rs1 [31:0] $end
    $var wire 32 : rf_rs2 [31:0] $end
    $var wire  1 V rst_i $end
    $var wire  1 % stall_stage1 $end
    $var wire  1 $ stall_stage2 $end
    $var wire  1 $ waiting_for_dbus_response $end
    $var wire  1 f waiting_for_ibus_response $end
    $scope module alu $end
     $var wire 32 ; a_i [31:0] $end
     $var wire 32 L arith_result [31:0] $end
     $var wire 32 < b_i [31:0] $end
     $var wire 32 Q final_shift_output [31:0] $end
     $var wire 32 = result_o [31:0] $end
     $var wire  1 D sel_add $end
     $var wire  1 H sel_and $end
     $var wire  3 7 sel_i [2:0] $end
     $var wire  1 G sel_or $end
     $var wire  1 I sel_sll $end
     $var wire  1 K sel_sra $end
     $var wire  1 J sel_srl $end
     $var wire  1 E sel_sub $end
     $var wire  1 F sel_xor $end
     $var wire 33 M shift_input [32:0] $end
     $var wire 33 O shift_output [32:0] $end
    $upscope $end
    $scope module csr_unit $end
     $var wire 12 @ addr_i [11:0] $end
     $var wire  1 U clk_i $end
     $var wire 64 R csr_cycle [63:0] $end
     $var wire 32 B data_i [31:0] $end
     $var wire 32 A data_o [31:0] $end
     $var wire  2 r op_i [1:0] $end
     $var wire 32 A read_value [31:0] $end
     $var wire  1 V rst_i $end
     $var wire  1 8 we_i $end
     $var wire 32 s write_value [31:0] $end
    $upscope $end
    $scope module decode $end
     $var wire  1 4 a_op_sel_o $end
     $var wire  3 7 alu_op_sel_o [2:0] $end
     $var wire  1 5 b_op_sel_o $end
     $var wire  1 6 cmp_b_op_sel_o $end
     $var wire  3 1 comparison_type_o [2:0] $end
     $var wire  3 n csru_op_sel_o [2:0] $end
     $var wire  1 8 csru_we_o $end
     $var wire  1 + d_mem_load_store $end
     $var wire  3 n func3 [2:0] $end
     $var wire  7 q func7 [6:0] $end
     $var wire 32 / getExtImm [31:0] $end
     $var wire  3 C imm_format [2:0] $end
     $var wire 32 / imm_o [31:0] $end
     $var wire 32 j instr_i [31:0] $end
     $var wire  1 0 jump_en_o $end
     $var wire  3 n mem_access_width_o [2:0] $end
     $var wire  1 * mem_we_o $end
     $var wire  7 p opcode [6:0] $end
     $var wire  5 k rd_sel_o [4:0] $end
     $var wire  3 3 rf_din_sel_o [2:0] $end
     $var wire  1 2 rf_we_o $end
     $var wire  5 l rs1_sel_o [4:0] $end
     $var wire  5 m rs2_sel_o [4:0] $end
    $upscope $end
    $scope module rf $end
     $var wire  1 U Clk_i $end
     $var wire  1 t Data_We_i $end
     $var wire 32 o Data_i [31:0] $end
     $var wire 32 7! REG_ADDR_WIDTH [31:0] $end
     $var wire 32 6! REG_COUNT [31:0] $end
     $var wire 32 6! REG_WIDTH [31:0] $end
     $var wire  5 l Ra_Sel_i [4:0] $end
     $var wire 32 9 Ra_o [31:0] $end
     $var wire  5 m Rb_Sel_i [4:0] $end
     $var wire 32 : Rb_o [31:0] $end
     $var wire  5 k Rd_Sel_i [4:0] $end
     $var wire  1 V Rst_i $end
     $var wire 32 T i [31:0] $end
     $var wire 32 u regs(1) [31:0] $end
     $var wire 32 ~ regs(10) [31:0] $end
     $var wire 32 !! regs(11) [31:0] $end
     $var wire 32 "! regs(12) [31:0] $end
     $var wire 32 #! regs(13) [31:0] $end
     $var wire 32 $! regs(14) [31:0] $end
     $var wire 32 %! regs(15) [31:0] $end
     $var wire 32 &! regs(16) [31:0] $end
     $var wire 32 '! regs(17) [31:0] $end
     $var wire 32 (! regs(18) [31:0] $end
     $var wire 32 )! regs(19) [31:0] $end
     $var wire 32 v regs(2) [31:0] $end
     $var wire 32 *! regs(20) [31:0] $end
     $var wire 32 +! regs(21) [31:0] $end
     $var wire 32 ,! regs(22) [31:0] $end
     $var wire 32 -! regs(23) [31:0] $end
     $var wire 32 .! regs(24) [31:0] $end
     $var wire 32 /! regs(25) [31:0] $end
     $var wire 32 0! regs(26) [31:0] $end
     $var wire 32 1! regs(27) [31:0] $end
     $var wire 32 2! regs(28) [31:0] $end
     $var wire 32 3! regs(29) [31:0] $end
     $var wire 32 w regs(3) [31:0] $end
     $var wire 32 4! regs(30) [31:0] $end
     $var wire 32 5! regs(31) [31:0] $end
     $var wire 32 x regs(4) [31:0] $end
     $var wire 32 y regs(5) [31:0] $end
     $var wire 32 z regs(6) [31:0] $end
     $var wire 32 { regs(7) [31:0] $end
     $var wire 32 | regs(8) [31:0] $end
     $var wire 32 } regs(9) [31:0] $end
    $upscope $end
   $upscope $end
  $upscope $end
 $upscope $end
$enddefinitions $end


#8
1#
0$
0%
b00000000000000000000000000000000 &
b00000000000000000000000000000000 '
b00000000000000000000000000000000 (
b1111 )
0*
0+
0,
0-
b00000000000000000000000000000000 .
b00000000000000000000000000000000 /
00
b000 1
12
b010 3
04
15
06
b000 7
08
b00000000000000000000000000000000 9
b00000000000000000000000000000000 :
b00000000000000000000000000000000 ;
b00000000000000000000000000000000 <
b00000000000000000000000000000000 =
1>
b00000000000000000000000000000000 ?
b000000000000 @
b00000000000000000000000000000000 A
b00000000000000000000000000000000 B
b000 C
1D
0E
0F
0G
0H
0I
0J
0K
b00000000000000000000000000000000 L
b000000000000000000000000000000000 M
b000000000000000000000000000000000 O
b00000000000000000000000000000000 Q
b0000000000000000000000000000000000000000000000000000000000000000 R
b00000000000000000000000000100000 T
0U
0V
b00000000000000000000000000000000 W
b00001000000000000000000100010111 X
1Y
1Z
b00000000000000000000000000000000 [
b00000000000000000000000000000000 \
b00000000000000000000000000000000 ]
b1111 ^
0_
0`
0a
b00000000000000000000000000000000 b
1c
1d
0e
0f
0g
b00000000000000000000000000000100 h
b00000000000000000000000000000000 i
b00000000000000000000000000010011 j
b00000 k
b00000 l
b00000 m
b000 n
b00000000000000000000000000000000 o
b0010011 p
b0000000 q
b00 r
b00000000000000000000000000000000 s
1t
b00000000000000000000000000000000 u
b00000000000000000000000000000000 v
b00000000000000000000000000000000 w
b00000000000000000000000000000000 x
b00000000000000000000000000000000 y
b00000000000000000000000000000000 z
b00000000000000000000000000000000 {
b00000000000000000000000000000000 |
b00000000000000000000000000000000 }
b00000000000000000000000000000000 ~
b00000000000000000000000000000000 !!
b00000000000000000000000000000000 "!
b00000000000000000000000000000000 #!
b00000000000000000000000000000000 $!
b00000000000000000000000000000000 %!
b00000000000000000000000000000000 &!
b00000000000000000000000000000000 '!
b00000000000000000000000000000000 (!
b00000000000000000000000000000000 )!
b00000000000000000000000000000000 *!
b00000000000000000000000000000000 +!
b00000000000000000000000000000000 ,!
b00000000000000000000000000000000 -!
b00000000000000000000000000000000 .!
b00000000000000000000000000000000 /!
b00000000000000000000000000000000 0!
b00000000000000000000000000000000 1!
b00000000000000000000000000000000 2!
b00000000000000000000000000000000 3!
b00000000000000000000000000000000 4!
b00000000000000000000000000000000 5!
b00000000000000000000000000100000 6!
b00000000000000000000000000000101 7!
#10
b00001000000000000000000000000000 '
b00000000000000000000000000000100 .
b00001000000000000000000000000000 /
14
b00001000000000000000000000000000 <
b00001000000000000000000000000000 =
b011 C
b00001000000000000000000000000000 L
b0000000000000000000000000000000000000000000000000000000000000001 R
1U
b00000000000000000000000000000100 W
b00001000000000000000000000000000 [
b00000000000000000000000000000100 b
b00000000000000000000000000001000 h
b00001000000000000000000100010111 j
b00010 k
b00001000000000000000000000000000 o
b0010111 p
b0000100 q
#15
0U
#18
b00000000000000010000000100010011 X
#20
b00000000000000000000000000001000 .
b00000000000000000000000000000000 /
04
b00001000000000000000000000000000 9
b00001000000000000000000000000000 ;
b00000000000000000000000000000000 <
b00001000000000000000000000000000 B
b000 C
b000000000000000000000000000010000 M
b000000000000000000000000000010000 O
b00000000000000000000000000010000 Q
b0000000000000000000000000000000000000000000000000000000000000010 R
1U
b00000000000000000000000000001000 W
b00000000000000000000000000001000 b
b00000000000000000000000000001100 h
b00000000000000000000000000000100 i
b00000000000000010000000100010011 j
b00010 l
b0010011 p
b0000000 q
b00001000000000000000000000000000 s
b00001000000000000000000000000000 v
#25
0U
#28
b00000100000000000000000110010111 X
#30
b00000100000000000000000000001000 '
b00000000000000000000000000001100 .
b00000100000000000000000000000000 /
14
b00000000000000000000000000000000 9
b00000000000000000000000000001000 ;
b00000100000000000000000000000000 <
b00000100000000000000000000001000 =
b00000000000000000000000000000000 B
b011 C
b00000100000000000000000000001000 L
b000010000000000000000000000000000 M
b000010000000000000000000000000000 O
b00010000000000000000000000000000 Q
b0000000000000000000000000000000000000000000000000000000000000011 R
1U
b00000000000000000000000000001100 W
b00000100000000000000000000001000 [
b00000000000000000000000000001100 b
b00000000000000000000000000010000 h
b00000000000000000000000000001000 i
b00000100000000000000000110010111 j
b00011 k
b00000 l
b00000100000000000000000000001000 o
b0010111 p
b0000010 q
b00000000000000000000000000000000 s
#35
0U
#38
b01111111100000011000000110010011 X
#40
b00000100000000000000100000000000 '
b00000000000000000000000000010000 .
b00000000000000000000011111111000 /
04
b00000100000000000000000000001000 9
b00000100000000000000000000001000 ;
b00000000000000000000011111111000 <
b00000100000000000000100000000000 =
b011111111000 @
b00000100000000000000000000001000 B
b000 C
b00000100000000000000100000000000 L
b000010000000000000000000000100000 M
b000000000000000000000000000010000 O
b00000000000000000000000000010000 Q
b0000000000000000000000000000000000000000000000000000000000000100 R
1U
b00000000000000000000000000010000 W
b00000100000000000000100000000000 [
b00000000000000000000000000010000 b
b00000000000000000000000000010100 h
b00000000000000000000000000001100 i
b01111111100000011000000110010011 j
b00011 l
b11000 m
b00000100000000000000100000000000 o
b0010011 p
b0111111 q
b00000100000000000000000000001000 s
b00000100000000000000000000001000 w
#45
0U
#48
b00000000000000000000010100010011 X
#50
b00000000000000000000000000000000 '
b00000000000000000000000000010100 .
b00000000000000000000000000000000 /
b00000000000000000000000000000000 9
b00000000000000000000000000000000 ;
b00000000000000000000000000000000 <
b00000000000000000000000000000000 =
b000000000000 @
b00000000000000000000000000000000 B
b00000000000000000000000000000000 L
b000000000000000000000000000000000 M
b000000000000000000000000000000000 O
b00000000000000000000000000000000 Q
b0000000000000000000000000000000000000000000000000000000000000101 R
1U
b00000000000000000000000000010100 W
b00000000000000000000000000000000 [
b00000000000000000000000000010100 b
b00000000000000000000000000011000 h
b00000000000000000000000000010000 i
b00000000000000000000010100010011 j
b01010 k
b00000 l
b00000 m
b00000000000000000000000000000000 o
b0000000 q
b00000000000000000000000000000000 s
b00000100000000000000100000000000 w
#55
0U
#58
b00000000000000000000010110010011 X
#60
b00000000000000000000000000011000 .
b0000000000000000000000000000000000000000000000000000000000000110 R
1U
b00000000000000000000000000011000 W
b00000000000000000000000000011000 b
b00000000000000000000000000011100 h
b00000000000000000000000000010100 i
b00000000000000000000010110010011 j
b01011 k
#65
0U
#68
b00010110110000000000000011101111 X
#70
b00000000000000000000000110000100 '
1,
b00000000000000000000000000011100 .
b00000000000000000000000101101100 /
10
b001 3
14
b00000000000000000000000000011000 ;
b00000000000000000000000101101100 <
b00000000000000000000000110000100 =
b000101101100 @
b100 C
b00000000000000000000000110000100 L
b000011000000000000000000000000000 M
b000000000000000011000000000000000 O
b00000000000000011000000000000000 Q
b0000000000000000000000000000000000000000000000000000000000000111 R
1U
b00000000000000000000000000011100 W
b00000000000000000000000110000100 [
b00000000000000000000000000011100 b
1g
b00000000000000000000000000100000 h
b00000000000000000000000000011000 i
b00010110110000000000000011101111 j
b00001 k
b01100 m
b00000000000000000000000000011100 o
b1101111 p
b0001011 q
#75
0U
#78
b00000000000100000000000001110011 X
#80
1%
b00000000000000000000000000000000 '
0,
1-
b00000000000000000000000000100000 .
b00000000000000000000000000000000 /
00
b010 3
04
b00000000000000000000000000000000 ;
b00000000000000000000000000000000 <
b00000000000000000000000000000000 =
b000000000000 @
b000 C
b00000000000000000000000000000000 L
b000000000000000000000000000000000 M
b000000000000000000000000000000000 O
b00000000000000000000000000000000 Q
b0000000000000000000000000000000000000000000000000000000000001000 R
1U
b00000000000000000000000110000100 W
b00000000000000000000000000000000 [
b00000000000000000000000110000100 b
0d
1f
b00000000000000000000000110001000 h
b00000000000000000000000000011100 i
b00000000000000000000000000010011 j
b00000 k
b00000 m
b00000000000000000000000000000000 o
b0010011 p
b0000000 q
b00000000000000000000000000011100 u
#85
0U
#88
b11111101000000010000000100010011 X
#90
0%
0-
b0000000000000000000000000000000000000000000000000000000000001001 R
1U
1d
0f
0g
#95
0U
#98
#100
b00000111111111111111111111010000 '
b00000000000000000000000110001000 .
b11111111111111111111111111010000 /
b00001000000000000000000000000000 9
b00001000000000000000000000000000 ;
b11111111111111111111111111010000 <
b00000111111111111111111111010000 =
b111111010000 @
b00001000000000000000000000000000 B
b00000111111111111111111111010000 L
b000000000000000000000000000010000 M
b0000000000000000000000000000000000000000000000000000000000001010 R
1U
b00000000000000000000000110001000 W
b00000111111111111111111111010000 [
b00000000000000000000000110001000 b
b00000000000000000000000110001100 h
b00000000000000000000000110000100 i
b11111101000000010000000100010011 j
b00010 k
b00010 l
b10000 m
b00000111111111111111111111010000 o
b1111110 q
b00001000000000000000000000000000 s
#105
0U
#108
b00000010000100010010011000100011 X
#110
1$
1%
b00000111111111111111111111111100 '
b00000000000000000000000000011100 (
1*
1+
b00000000000000000000000110001100 .
b00000000000000000000000000101100 /
02
b000 3
b00000111111111111111111111010000 9
b00000000000000000000000000011100 :
b00000111111111111111111111010000 ;
b00000000000000000000000000101100 <
b00000111111111111111111111111100 =
b00000000000000000000000000011100 ?
b000000101100 @
b00000111111111111111111111010000 B
b001 C
b00000111111111111111111111111100 L
b000001011111111111111111111100000 M
b000000000000000001011111111111111 O
b00000000000000001011111111111111 Q
b0000000000000000000000000000000000000000000000000000000000001011 R
1U
b00000000000000000000000110001100 W
b00000111111111111111111111111100 [
b00000000000000000000000000011100 ]
1_
1`
b00000000000000000000000110001100 b
b00000000000000000000000110010000 h
b00000000000000000000000110001000 i
b00000010000100010010011000100011 j
b01100 k
b00001 m
b010 n
b00000000000000000000000000101100 o
b0100011 p
b0000001 q
b10 r
b11111111111111111111111111111111 s
0t
b00000111111111111111111111010000 v
#115
0U
#118
0$
0%
b00000010100000010010010000100011 X
1a
1e
#120
b00000111111111111111111111111000 '
b00000000000000000000000000000000 (
b00000000000000000000000110010000 .
b00000000000000000000000000101000 /
b00000000000000000000000000000000 :
b00000000000000000000000000101000 <
b00000111111111111111111111111000 =
b00000000000000000000000000000000 ?
b000000101000 @
b00000111111111111111111111111000 L
b000000000000010111111111111111111 O
b00000000000010111111111111111111 Q
b0000000000000000000000000000000000000000000000000000000000001100 R
1U
b00000000000000000000000110010000 W
b00000111111111111111111111111000 [
b00000000000000000000000000000000 ]
b00000000000000000000000110010000 b
b00000000000000000000000110010100 h
b00000000000000000000000110001100 i
b00000010100000010010010000100011 j
b01000 k
b01000 m
b00000000000000000000000000101000 o
#125
0U
#128
b00000011000000010000010000010011 X
#130
b00001000000000000000000000000000 '
0*
0+
b00000000000000000000000110010100 .
b00000000000000000000000000110000 /
12
b010 3
b00000000000000000000000000110000 <
b00001000000000000000000000000000 =
b000000110000 @
b000 C
b00001000000000000000000000000000 L
b000000000000000000000101111111111 O
b00000000000000000000101111111111 Q
b0000000000000000000000000000000000000000000000000000000000001101 R
1U
b00000000000000000000000110010100 W
b00001000000000000000000000000000 [
0_
0`
b00000000000000000000000110010100 b
0e
b00000000000000000000000110011000 h
b00000000000000000000000110010000 i
b00000011000000010000010000010011 j
b10000 m
b000 n
b00001000000000000000000000000000 o
b0010011 p
b00 r
b00000111111111111111111111010000 s
1t
#135
0U
#138
b00000000000000000001011110110111 X
0a
#140
b00000000000000000000000000000000 '
b00000000000000000000000110011000 .
b00000000000000000001000000000000 /
b000 3
05
b00000000000000000000000000000000 9
b00000000000000000000000000000000 ;
b00000000000000000000000000000000 <
b00000000000000000000000000000000 =
b000000000000 @
b00000000000000000000000000000000 B
b011 C
b00000000000000000000000000000000 L
b000000000000000000000000000000000 M
b000000000000000000000000000000000 O
b00000000000000000000000000000000 Q
b0000000000000000000000000000000000000000000000000000000000001110 R
1U
b00000000000000000000000110011000 W
b00000000000000000000000000000000 [
b00000000000000000000000110011000 b
b00000000000000000000000110011100 h
b00000000000000000000000110010100 i
b00000000000000000001011110110111 j
b01111 k
b00000 l
b00000 m
b001 n
b00000000000000000001000000000000 o
b0110111 p
b0000000 q
b01 r
b00000000000000000000000000000000 s
b00001000000000000000000000000000 |
#145
0U
#148
b11101000000001111000011110010011 X
#150
b00000000000000000000111010000000 '
b00000000000000000000000110011100 .
b11111111111111111111111010000000 /
b010 3
15
b00000000000000000001000000000000 9
b00000000000000000001000000000000 ;
b11111111111111111111111010000000 <
b00000000000000000000111010000000 =
b111010000000 @
b00000000000000000001000000000000 B
b000 C
b00000000000000000000111010000000 L
b000000000000010000000000000000000 M
b000000000000010000000000000000000 O
b00000000000010000000000000000000 Q
b0000000000000000000000000000000000000000000000000000000000001111 R
1U
b00000000000000000000000110011100 W
b00000000000000000000111010000000 [
b00000000000000000000000110011100 b
b00000000000000000000000110100000 h
b00000000000000000000000110011000 i
b11101000000001111000011110010011 j
b01111 l
b000 n
b00000000000000000000111010000000 o
b0010011 p
b1110100 q
b00 r
b00000000000000000001000000000000 s
b00000000000000000001000000000000 %!
#155
0U
#158
b00000000000001111010100010000011 X
#160
1$
1%
1+
b00000000000000000000000110100000 .
b00000000000000000000000000000000 /
b100 3
b00000000000000000000111010000000 9
b00000000000000000000111010000000 ;
b00000000000000000000000000000000 <
b000000000000 @
b00000000000000000000111010000000 B
b000000001011100000000000000000000 M
b000000001011100000000000000000000 O
b00000001011100000000000000000000 Q
b0000000000000000000000000000000000000000000000000000000000010000 R
1U
b00000000000000000000000110100000 W
1`
b00000000000000000000000110100000 b
b00000000000000000000000110100100 h
b00000000000000000000000110011100 i
b00000000000001111010100010000011 j
b10001 k
b010 n
b00000000000000000000000000000000 o
b0000011 p
b0000000 q
b10 r
b11111111111111111111111111111111 s
0t
b00000000000000000000111010000000 %!
#165
0U
#168
0$
0%
b01101100011011000110010101001000 &
b00000000010001111010100000000011 X
b01101100011011000110010101001000 \
1a
1e
b01101100011011000110010101001000 o
1t
#170
b00000000000000000000111010000100 '
b00000000000000000000000110100100 .
b00000000000000000000000000000100 /
b00000000000000000000000000000100 <
b00000000000000000000111010000100 =
b000000000100 @
b00000000000000000000111010000100 L
b000000000000101110000000000000000 O
b00000000000101110000000000000000 Q
b0000000000000000000000000000000000000000000000000000000000010001 R
1U
b00000000000000000000000110100100 W
b00000000000000000000111010000100 [
b00000000000000000000000110100100 b
b00000000000000000000000110101000 h
b00000000000000000000000110100000 i
b00000000010001111010100000000011 j
b10000 k
b00100 m
b01101100011011000110010101001000 '!
#175
0U
#178
b01101111010101110010000001101111 &
b00000000100001111010010100000011 X
b01101111010101110010000001101111 \
b01101111010101110010000001101111 o
#180
b00000000000000000000111010001000 '
b00000000000000000000000110101000 .
b00000000000000000000000000001000 /
b00001000000000000000000000000000 :
b00000000000000000000000000001000 <
b00000000000000000000111010001000 =
b00001000000000000000000000000000 ?
b000000001000 @
b00000000000000000000111010001000 L
b000000000000000010111000000000000 O
b00000000000000010111000000000000 Q
b0000000000000000000000000000000000000000000000000000000000010010 R
1U
b00000000000000000000000110101000 W
b00000000000000000000111010001000 [
b00000000000000000000000110101000 b
b00000000000000000000000110101100 h
b00000000000000000000000110100100 i
b00000000100001111010010100000011 j
b01010 k
b01000 m
b01101111010101110010000001101111 &!
#185
0U
#188
b00100001011001000110110001110010 &
b00000000110001111010010110000011 X
b00100001011001000110110001110010 \
b00100001011001000110110001110010 o
#190
b00000000000000000000111010001100 '
b00000000000000000000000110101100 .
b00000000000000000000000000001100 /
b00000000000000000000000000000000 :
b00000000000000000000000000001100 <
b00000000000000000000111010001100 =
b00000000000000000000000000000000 ?
b000000001100 @
b00000000000000000000111010001100 L
b000000000000000000001011100000000 O
b00000000000000000001011100000000 Q
b0000000000000000000000000000000000000000000000000000000000010011 R
1U
b00000000000000000000000110101100 W
b00000000000000000000111010001100 [
b00000000000000000000000110101100 b
b00000000000000000000000110110000 h
b00000000000000000000000110101000 i
b00000000110001111010010110000011 j
b01011 k
b01100 m
b00100001011001000110110001110010 ~
#195
0U
#198
b00100000001000000010000000001010 &
b00000001000001111010011000000011 X
b00100000001000000010000000001010 \
b00100000001000000010000000001010 o
#200
b00000000000000000000111010010000 '
b00000000000000000000000110110000 .
b00000000000000000000000000010000 /
b01101111010101110010000001101111 :
b00000000000000000000000000010000 <
b00000000000000000000111010010000 =
b01101111010101110010000001101111 ?
b000000010000 @
b00000000000000000000111010010000 L
b000000000000000000000000101110000 O
b00000000000000000000000101110000 Q
b0000000000000000000000000000000000000000000000000000000000010100 R
1U
b00000000000000000000000110110000 W
b00000000000000000000111010010000 [
b00000000000000000000000110110000 b
b00000000000000000000000110110100 h
b00000000000000000000000110101100 i
b00000001000001111010011000000011 j
b01100 k
b10000 m
b00100000001000000010000000001010 !!
#205
0U
#208
b00101101001000000010000000100000 &
b00000001010001111010011010000011 X
b00101101001000000010000000100000 \
b00101101001000000010000000100000 o
#210
b00000000000000000000111010010100 '
b00000000000000000000000110110100 .
b00000000000000000000000000010100 /
b00000000000000000000000000000000 :
b00000000000000000000000000010100 <
b00000000000000000000111010010100 =
b00000000000000000000000000000000 ?
b000000010100 @
b00000000000000000000111010010100 L
b000000000000000000000000000010111 O
b00000000000000000000000000010111 Q
b0000000000000000000000000000000000000000000000000000000000010101 R
1U
b00000000000000000000000110110100 W
b00000000000000000000111010010100 [
b00000000000000000000000110110100 b
b00000000000000000000000110111000 h
b00000000000000000000000110110000 i
b00000001010001111010011010000011 j
b01101 k
b10100 m
b00101101001000000010000000100000 "!
#215
0U
#218
b01110010011001100010000000101101 &
b00000001100001111010011100000011 X
b01110010011001100010000000101101 \
b01110010011001100010000000101101 o
#220
b00000000000000000000111010011000 '
b00000000000000000000000110111000 .
b00000000000000000000000000011000 /
b00000000000000000000000000011000 <
b00000000000000000000111010011000 =
b000000011000 @
b00000000000000000000111010011000 L
b000000000000000000000000000000001 O
b00000000000000000000000000000001 Q
b0000000000000000000000000000000000000000000000000000000000010110 R
1U
b00000000000000000000000110111000 W
b00000000000000000000111010011000 [
b00000000000000000000000110111000 b
b00000000000000000000000110111100 h
b00000000000000000000000110110100 i
b00000001100001111010011100000011 j
b01110 k
b11000 m
b01110010011001100010000000101101 #!
#225
0U
#228
b01000011001000000110110101101111 &
b11111101000101000010100000100011 X
b01000011001000000110110101101111 \
b01000011001000000110110101101111 o
#230
b00000111111111111111111111010000 '
b01101100011011000110010101001000 (
1*
b00000000000000000000000110111100 .
b11111111111111111111111111010000 /
02
b000 3
b00001000000000000000000000000000 9
b01101100011011000110010101001000 :
b00001000000000000000000000000000 ;
b11111111111111111111111111010000 <
b00000111111111111111111111010000 =
b01101100011011000110010101001000 ?
b111111010000 @
b00001000000000000000000000000000 B
b001 C
b00000111111111111111111111010000 L
b000000000000000000000000000010000 M
b000000000000000000000000000000000 O
b00000000000000000000000000000000 Q
b0000000000000000000000000000000000000000000000000000000000010111 R
1U
b00000000000000000000000110111100 W
b00000111111111111111111111010000 [
b01101100011011000110010101001000 ]
1_
b00000000000000000000000110111100 b
b00000000000000000000000111000000 h
b00000000000000000000000110111000 i
b11111101000101000010100000100011 j
b10000 k
b01000 l
b10001 m
b11111111111111111111111111010000 o
b0100011 p
b1111110 q
0t
b01000011001000000110110101101111 $!
#235
0U
#238
b11111101000001000010101000100011 X
#240
b00000111111111111111111111010100 '
b01101111010101110010000001101111 (
b00000000000000000000000111000000 .
b11111111111111111111111111010100 /
b01101111010101110010000001101111 :
b11111111111111111111111111010100 <
b00000111111111111111111111010100 =
b01101111010101110010000001101111 ?
b111111010100 @
b00000111111111111111111111010100 L
b0000000000000000000000000000000000000000000000000000000000011000 R
1U
b00000000000000000000000111000000 W
b00000111111111111111111111010100 [
b01101111010101110010000001101111 ]
b00000000000000000000000111000000 b
b00000000000000000000000111000100 h
b00000000000000000000000110111100 i
b11111101000001000010101000100011 j
b10100 k
b10000 m
b11111111111111111111111111010100 o
#245
0U
#248
b11111100101001000010110000100011 X
#250
b00000111111111111111111111011000 '
b00100001011001000110110001110010 (
b00000000000000000000000111000100 .
b11111111111111111111111111011000 /
b00100001011001000110110001110010 :
b11111111111111111111111111011000 <
b00000111111111111111111111011000 =
b00100001011001000110110001110010 ?
b111111011000 @
b00000111111111111111111111011000 L
b0000000000000000000000000000000000000000000000000000000000011001 R
1U
b00000000000000000000000111000100 W
b00000111111111111111111111011000 [
b00100001011001000110110001110010 ]
b00000000000000000000000111000100 b
b00000000000000000000000111001000 h
b00000000000000000000000111000000 i
b11111100101001000010110000100011 j
b11000 k
b01010 m
b11111111111111111111111111011000 o
#255
0U
#258
b11111100101101000010111000100011 X
#260
b00000111111111111111111111011100 '
b00100000001000000010000000001010 (
b00000000000000000000000111001000 .
b11111111111111111111111111011100 /
b00100000001000000010000000001010 :
b11111111111111111111111111011100 <
b00000111111111111111111111011100 =
b00100000001000000010000000001010 ?
b111111011100 @
b00000111111111111111111111011100 L
b0000000000000000000000000000000000000000000000000000000000011010 R
1U
b00000000000000000000000111001000 W
b00000111111111111111111111011100 [
b00100000001000000010000000001010 ]
b00000000000000000000000111001000 b
b00000000000000000000000111001100 h
b00000000000000000000000111000100 i
b11111100101101000010111000100011 j
b11100 k
b01011 m
b11111111111111111111111111011100 o
#265
0U
#268
b11111110110001000010000000100011 X
